module minesweeper

go 1.17

require (
	github.com/charmbracelet/bubbles v0.10.3
	github.com/charmbracelet/bubbletea v0.20.0
)

require (
	github.com/containerd/console v1.0.3 // indirect
	github.com/lucasb-eyer/go-colorful v1.2.0 // indirect
	github.com/mattn/go-isatty v0.0.14 // indirect
	github.com/mattn/go-runewidth v0.0.13 // indirect
	github.com/muesli/ansi v0.0.0-20211031195517-c9f0611b6c70 // indirect
	github.com/muesli/reflow v0.3.0 // indirect
	github.com/muesli/termenv v0.11.1-0.20220212125758-44cd13922739 // indirect
	github.com/rivo/uniseg v0.2.0 // indirect
	golang.org/x/sys v0.0.0-20220520151302-bc2c85ada10a // indirect
	golang.org/x/term v0.0.0-20220526004731-065cf7ba2467 // indirect
)
